arch-late-master-py3
Salt install method: git
# salt-call --versions-report
Salt Version:
          Salt: 3007.0+0na.0a98359
 
Python Version:
        Python: 3.11.3 (main, Jun  5 2023, 09:32:32) [GCC 13.1.1 20230429]
 
Dependency Versions:
          cffi: 1.15.1
      cherrypy: Not Installed
      dateutil: Not Installed
     docker-py: Not Installed
         gitdb: Not Installed
     gitpython: Not Installed
        Jinja2: 3.1.2
       libgit2: Not Installed
  looseversion: 1.3.0
      M2Crypto: Not Installed
          Mako: Not Installed
       msgpack: 1.0.5
  msgpack-pure: Not Installed
  mysql-python: Not Installed
     packaging: 23.1
     pycparser: 2.21
      pycrypto: Not Installed
  pycryptodome: 3.18.0
        pygit2: Not Installed
  python-gnupg: Not Installed
        PyYAML: 6.0.1
         PyZMQ: 25.1.0
        relenv: Not Installed
         smmap: Not Installed
       timelib: Not Installed
       Tornado: 6.3.2
           ZMQ: 4.3.4
 
System Versions:
          dist: arch 20230725.0.167364 
        locale: utf-8
       machine: x86_64
       release: 5.4.109+
        system: Linux
       version: Arch Linux 20230725.0.167364 
 
# salt-call --local grains.item init kernel kernelrelease kernelversion locale_info lsb_distrib_codename lsb_distrib_id lsb_distrib_release os os_family osarch osbuild oscodename osfinger osfullname osmajorrelease osmanufacturer osrelease osrelease_info osversion pythonexecutable pythonpath pythonversion saltpath saltversion saltversioninfo systemd virtual virtual_subtype zmqversion
local:
    ----------
    init:
        unknown
    kernel:
        Linux
    kernelrelease:
        5.4.109+
    kernelversion:
        #1 SMP Wed Jun 16 20:00:10 PDT 2021
    locale_info:
        ----------
        defaultencoding:
            UTF-8
        defaultlanguage:
            en_US
        detectedencoding:
            utf-8
        timezone:
            unknown
    lsb_distrib_codename:
        Arch Linux
    lsb_distrib_id:
        Arch Linux
    lsb_distrib_release:
        20230725.0.167364
    os:
        Arch
    os_family:
        Arch
    osarch:
        x86_64
    osbuild:
    oscodename:
        Arch Linux
    osfinger:
        Arch Linux-20230725
    osfullname:
        Arch Linux
    osmajorrelease:
        20230725
    osmanufacturer:
    osrelease:
        20230725.0.167364
    osrelease_info:
        - 20230725
        - 0
        - 167364
    osversion:
    pythonexecutable:
        /usr/bin/python
    pythonpath:
        - /usr/bin
        - /usr/lib/python311.zip
        - /usr/lib/python3.11
        - /usr/lib/python3.11/lib-dynload
        - /usr/lib/python3.11/site-packages
    pythonversion:
        - 3
        - 11
        - 3
        - final
        - 0
    saltpath:
        /usr/lib/python3.11/site-packages/salt
    saltversion:
        3007.0+0na.0a98359
    saltversioninfo:
        - 3007
        - 0
    systemd:
        ----------
        features:
            +PAM +AUDIT -SELINUX -APPARMOR -IMA +SMACK +SECCOMP +GCRYPT +GNUTLS +OPENSSL +ACL +BLKID +CURL +ELFUTILS +FIDO2 +IDN2 -IDN +IPTC +KMOD +LIBCRYPTSETUP +LIBFDISK +PCRE2 -PWQUALITY +P11KIT -QRENCODE +TPM2 +BZIP2 +LZ4 +XZ +ZLIB +ZSTD +BPF_FRAMEWORK +XKBCOMMON +UTMP -SYSVINIT default-hierarchy=unified
        version:
            253
    virtual:
        container
    virtual_subtype:
        Docker
    zmqversion:
        4.3.4
# salt-call --local pkg.list_pkgs
local:
    ----------
    acl:
        2.3.1-3
    archlinux-keyring:
        20230704-1
    argon2:
        20190702-5
    attr:
        2.5.1-3
    audit:
        3.1.1-1
    base:
        3-1
    bash:
        5.1.016-4
    binutils:
        2.40-6
    brotli:
        1.0.9-12
    bzip2:
        1.0.8-5
    ca-certificates:
        20220905-1
    ca-certificates-mozilla:
        3.91-1
    ca-certificates-utils:
        20220905-1
    coreutils:
        9.3-1
    cryptsetup:
        2.6.1-3
    curl:
        8.2.0-2
    db:
        6.2.32-1
    db5.3:
        5.3.28-2
    dbus:
        1.14.8-1
    device-mapper:
        2.03.21-1
    dnssec-anchors:
        20190629-3
    e2fsprogs:
        1.47.0-1
    expat:
        2.5.0-1
    file:
        5.44-3
    filesystem:
        2023.01.31-1
    findutils:
        4.9.0-3
    gawk:
        5.2.2-1
    gcc:
        13.1.1-2
    gcc-libs:
        13.1.1-2
    gdbm:
        1.23-2
    gettext:
        0.22-1
    git:
        2.41.0-1
    glib2:
        2.76.4-1
    glibc:
        2.37-3
    gmp:
        6.2.1-2
    gnupg:
        2.2.41-1
    gnutls:
        3.8.0-1
    gpgme:
        1.21.0-1
    grep:
        3.11-1
    gzip:
        1.12-2
    hwdata:
        0.372-1
    iana-etc:
        20230629-1
    icu:
        73.2-2
    iproute2:
        6.4.0-1
    iptables:
        1:1.8.9-1
    iputils:
        20221126-2
    jansson:
        2.14-2
    json-c:
        0.16-1
    kbd:
        2.6.1-1
    keyutils:
        1.6.3-2
    kmod:
        30-3
    krb5:
        1.20.1-1
    ldns:
        1.8.3-2
    less:
        1:633-1
    libarchive:
        3.7.0-2
    libassuan:
        2.5.6-1
    libbpf:
        1.2.2-1
    libcap:
        2.69-1
    libcap-ng:
        0.8.3-2
    libedit:
        20221030_3.1-1
    libelf:
        0.189-1
    libevent:
        2.1.12-4
    libffi:
        3.4.4-1
    libgcrypt:
        1.10.2-1
    libgpg-error:
        1.47-1
    libidn2:
        2.3.4-3
    libisl:
        0.26-1
    libksba:
        1.6.4-1
    libldap:
        2.6.4-2
    libmnl:
        1.0.5-1
    libmpc:
        1.3.1-1
    libnetfilter_conntrack:
        1.0.9-1
    libnfnetlink:
        1.0.2-1
    libnftnl:
        1.2.5-1
    libnghttp2:
        1.55.1-1
    libnl:
        3.7.0-3
    libnsl:
        2.0.0-3
    libp11-kit:
        0.25.0-1
    libpcap:
        1.10.4-1
    libpsl:
        0.21.2-1
    libsasl:
        2.1.28-4
    libseccomp:
        2.5.4-2
    libsecret:
        0.20.5-2
    libssh2:
        1.11.0-1
    libsysprof-capture:
        3.48.0-2
    libtasn1:
        4.19.0-1
    libtirpc:
        1.3.3-2
    libunistring:
        1.1-2
    libutempter:
        1.2.1-3
    libverto:
        0.3.2-4
    libxcrypt:
        4.4.36-1
    libxml2:
        2.11.4-1
    libyaml:
        0.2.5-2
    licenses:
        20220125-2
    linux-api-headers:
        6.3-1
    lz4:
        1:1.9.4-1
    mpfr:
        4.2.0.p12-1
    ncurses:
        6.4_20230520-1
    net-tools:
        2.10-2
    nettle:
        3.9.1-1
    npth:
        1.6-4
    openssh:
        9.3p2-1
    openssl:
        3.1.1-1
    p11-kit:
        0.25.0-1
    pacman:
        6.0.2-7
    pacman-mirrorlist:
        20230628-1
    pam:
        1.5.3-3
    pambase:
        20221020-1
    pciutils:
        3.10.0-1
    pcre2:
        10.42-2
    perl:
        5.36.1-2
    perl-error:
        0.17029-4
    perl-mailtools:
        2.21-6
    perl-timedate:
        2.33-4
    pinentry:
        1.2.1-1
    popt:
        1.19-1
    procps-ng:
        4.0.3-1
    psmisc:
        23.6-1
    python:
        3.11.3-2
    python-attrs:
        22.2.0-3
    python-autocommand:
        2.2.2-4
    python-cffi:
        1.15.1-3
    python-cryptography:
        41.0.2-1
    python-fastjsonschema:
        2.18.0-1
    python-inflect:
        6.1.0-1
    python-jaraco.context:
        4.3.0-3
    python-jaraco.functools:
        3.8.0-1
    python-jaraco.text:
        3.11.1-3
    python-more-itertools:
        9.1.1-4
    python-ordered-set:
        4.1.0-4
    python-packaging:
        23.1-1
    python-pip:
        23.1.2-1
    python-platformdirs:
        3.9.1-1
    python-ply:
        3.11-12
    python-pycparser:
        2.21-5
    python-pydantic:
        1.10.9-1
    python-setuptools:
        1:68.0.0-1
    python-tomli:
        2.0.1-3
    python-trove-classifiers:
        2023.7.6-1
    python-typing_extensions:
        4.7.1-1
    python-validate-pyproject:
        0.13-1
    python-wheel:
        0.40.0-3
    python-yaml:
        6.0-3
    readline:
        8.2.001-2
    sed:
        4.9-3
    shadow:
        4.13-2
    sqlite:
        3.42.0-1
    sudo:
        1.9.14.p2-1
    systemd:
        253.7-1
    systemd-libs:
        253.7-1
    systemd-sysvcompat:
        253.7-1
    tar:
        1.34-2
    tpm2-tss:
        4.0.1-1
    tzdata:
        2023c-2
    util-linux:
        2.39.1-1
    util-linux-libs:
        2.39.1-1
    xz:
        5.4.3-1
    zlib:
        1:1.2.13-3
    zstd:
        1.5.5-1
# salt-call --local pip.list
local:
    ----------
    Jinja2:
        3.1.2
    MarkupSafe:
        2.1.3
    PyYAML:
        6.0.1
    attrs:
        22.2.0
    autocommand:
        2.2.2
    certifi:
        2023.7.22
    cffi:
        1.15.1
    charset-normalizer:
        3.2.0
    contextvars:
        2.4
    cryptography:
        41.0.2
    distro:
        1.8.0
    fastjsonschema:
        2.18.0
    idna:
        3.4
    immutables:
        0.19
    inflect:
        6.1.0
    jaraco.context:
        4.3.0
    jaraco.functools:
        3.8.0
    jaraco.text:
        3.11.1
    jmespath:
        1.0.1
    looseversion:
        1.3.0
    more-itertools:
        9.1.0
    msgpack:
        1.0.5
    ordered-set:
        4.1.0
    packaging:
        23.1
    pip:
        23.1.2
    platformdirs:
        3.9.1
    ply:
        3.11
    psutil:
        5.9.5
    pycparser:
        2.21
    pycryptodomex:
        3.18.0
    pydantic:
        1.10.9
    pyzmq:
        25.1.0
    requests:
        2.31.0
    salt:
        3007.0+0na.0a98359
    setuptools:
        68.0.0
    tomli:
        2.0.1
    tornado:
        6.3.2
    trove-classifiers:
        2023.7.8
    typing_extensions:
        4.7.1
    urllib3:
        2.0.4
    validate-pyproject:
        0.13.post1.dev0+gb752273.d20230520
    wheel:
        0.41.0
# salt-call --local locale.list_avail
local:
    - C
    - C.UTF-8
    - POSIX
    - en_US.utf8
